<svg width="7" height="8" viewBox="0 0 7 8" fill="none" xmlns="http://www.w3.org/2000/svg">
<g clip-path="url(#clip0)">
<path d="M1.64841 3.9313L4.65831 0.921499C4.84977 0.729941 5.1602 0.729941 5.35158 0.921499C5.54296 1.11289 5.54296 1.4233 5.35158 1.61467L2.68828 4.27788L5.3515 6.941C5.54289 7.13246 5.54289 7.44285 5.3515 7.63423C5.16011 7.8257 4.8497 7.8257 4.65823 7.63423L1.64834 4.62439C1.55264 4.52865 1.50485 4.40331 1.50485 4.2779C1.50485 4.15243 1.55274 4.02699 1.64841 3.9313Z" fill="#8BBECF"/>
</g>
<defs>
<clipPath id="clip0">
<rect width="7" height="7" fill="white" transform="translate(7 7.77783) rotate(180)"/>
</clipPath>
</defs>
</svg>
