<svg width="40" height="40" viewBox="0 0 40 40" fill="none" xmlns="http://www.w3.org/2000/svg">
<g clip-path="url(#clip0)">
<path d="M27.5067 32.8241V25.1819H21.2045V18.5077L25.6848 20.5569L27.3364 19.357L26.6235 13.1757L30.8334 8.59375L30.2026 6.65222L24.1037 5.41992L21.0471 0H19.0054L15.9488 5.41992L9.84955 6.65222L9.21875 8.59375L13.4286 13.1757L12.7161 19.357L14.3677 20.5569L18.8608 18.5019V25.1819H12.5583V32.8241C10.9088 33.2812 9.69391 34.7952 9.69391 36.5884V40H30.3714V36.5884C30.3714 34.7952 29.1565 33.2812 27.5067 32.8241ZM12.0374 36.5884C12.0374 35.7269 12.7383 35.0259 13.6002 35.0259H26.4648C27.3267 35.0259 28.0276 35.7269 28.0276 36.5884V37.6562H12.0374V36.5884ZM25.163 27.5256V32.6822H14.9023V27.5256H25.163ZM22.5888 7.50488L27.7017 8.53821L24.1724 12.3792L24.7699 17.5613L20.0262 15.3915L15.2823 17.5613L15.8798 12.3792L12.3505 8.53821L17.4637 7.50488L20.0262 2.96143L22.5888 7.50488Z" fill="#6BBBDA"/>
</g>
<defs>
<clipPath id="clip0">
<rect width="40" height="40" fill="white"/>
</clipPath>
</defs>
</svg>
