<svg width="8" height="8" viewBox="0 0 8 8" fill="none" xmlns="http://www.w3.org/2000/svg">
<path d="M4.43301 7.25C4.24056 7.58333 3.75944 7.58333 3.56699 7.25L0.102887 1.25C-0.089564 0.916667 0.150998 0.5 0.535899 0.5L7.4641 0.499999C7.849 0.499999 8.08956 0.916666 7.89711 1.25L4.43301 7.25Z" fill="white"/>
</svg>
